…
Know Your Data

What is the first painting that was acquired?

moma %>% 
  select(artist, title, year_acquired) %>% 
  arrange(year_acquired)

## # A tibble: 2,253 x 3
##    artist            title                                         year_acquired
##    <chr>             <chr>                                                 <dbl>
##  1 Edward Hopper     House by the Railroad                                  1930
##  2 Bernard Karfiol   Seated Nude                                            1930
##  3 Pierre Roy        Daylight Savings Time                                  1931
##  4 Preston Dickinson Plums on a Plate                                       1931
##  5 Otto Dix          Dr. Mayer-Hermann                                      1932
##  6 Paul Cézanne      The Bather                                             1934
##  7 Paul Cézanne      Pines and Rocks (Fontainebleau?)                       1934
##  8 Paul Cézanne      Still Life with Ginger Jar, Sugar Bowl, and ~          1934
##  9 Paul Cézanne      Still Life with Apples                                 1934
## 10 Arthur B. Davies  Italian Landscape                                      1934
## # ... with 2,243 more rows

What is the oldest painting?

moma %>% 
  select(artist, title, year_created) %>% 
  arrange(year_created)

## # A tibble: 2,253 x 3
##    artist       title                                    year_created
##    <chr>        <chr>                                           <dbl>
##  1 Odilon Redon Landscape at Daybreak                            1872
##  2 Odilon Redon Apache (Man on Horseback)                        1875
##  3 Odilon Redon Apache (Man on Horseback II)                     1875
##  4 Odilon Redon Fishing Boat                                     1875
##  5 Odilon Redon Rocky Peak                                       1875
##  6 Odilon Redon The Rocky Slope                                  1875
##  7 Odilon Redon Landscape with Rocks, near Royan                 1875
##  8 Paul Cézanne Still Life with Fruit Dish                       1879
##  9 Paul Cézanne L'Estaque                                        1879
## 10 Claude Monet On the Cliff at Pourville, Clear Weather         1882
## # ... with 2,243 more rows

How many artists?

moma %>% 
  distinct(artist)

## # A tibble: 989 x 1
##    artist           
##    <chr>            
##  1 Joan Miró        
##  2 Paul Klee        
##  3 Pablo Picasso    
##  4 Arthur Dove      
##  5 Francis Picabia  
##  6 Blinky Palermo   
##  7 Pierre Roy       
##  8 Paul Cézanne     
##  9 Enrico Prampolini
## 10 Jankel Adler     
## # ... with 979 more rows

Which artist has the most paintings?

moma %>% 
  count(artist, sort = TRUE)

## # A tibble: 989 x 2
##    artist               n
##    <chr>            <int>
##  1 Pablo Picasso       55
##  2 Henri Matisse       32
##  3 On Kawara           32
##  4 Jacob Lawrence      30
##  5 Batiste Madalena    25
##  6 Jean Dubuffet       25
##  7 Odilon Redon        25
##  8 Ben Vautier         24
##  9 Frank Stella        23
## 10 Philip Guston       23
## # ... with 979 more rows
…
## # A tibble: 3 x 2
##   artist_gender     n
##   <chr>         <int>
## 1 Female          143
## 2 Male            837
## 3 <NA>              9

In which years were the most paintings in the collection acquired?

moma %>% 
  count(year_acquired, sort = TRUE)

## # A tibble: 88 x 2
##    year_acquired     n
##            <dbl> <int>
##  1          1985    86
##  2          1942    71
##  3          1979    71
##  4          1991    67
##  5          2005    67
##  6          1967    65
##  7          2008    55
##  8          1961    45
##  9          1969    45
## 10          1956    42
## # ... with 78 more rows

In which years were the most paintings in the collection created?

moma %>% 
  count(year_created, sort = TRUE)

## # A tibble: 139 x 2
##    year_created     n
##           <dbl> <int>
##  1         1977    57
##  2         1940    56
##  3         1964    56
##  4         1961    50
##  5         1962    49
##  6         1963    44
##  7         1959    42
##  8         1968    40
##  9         1960    39
## 10         1914    37
## # ... with 129 more rows

What about the first painting by a solo female artist?

moma %>% 
  filter(num_artists == 1 & n_female_artists == 1) %>% 
  select(title, artist, year_acquired, year_created) %>% 
  arrange(year_acquired)

## # A tibble: 252 x 4
##    title                           artist             year_acquired year_created
##    <chr>                           <chr>                      <dbl>        <dbl>
##  1 Landscape, 47                   Natalia Goncharova          1937         1912
##  2 Shack                           Loren MacIver               1938         1934
##  3 Hopscotch                       Loren MacIver               1940         1940
##  4 Shadows with Painting           Irene Rice Pereira          1941         1940
##  5 Figure                          Varvara Stepanova           1941         1921
##  6 Still Life in Red               Amelia Peláez Del~          1942         1938
##  7 White Lines                     Irene Rice Pereira          1942         1942
##  8 Musical Squash                  Maud Morgan                 1942         1942
##  9 Desolation                      Raquel Forner               1942         1942
## 10 Self-Portrait with Cropped Hair Frida Kahlo                 1943         1940
## # ... with 242 more rows
…
